[2022-02-28T13:47:48.862] [INFO] zenq - Total / Free Memory (GB) :7.766304016113281 / 1.1280097961425781
[2022-02-28T13:47:48.869] [INFO] zenq - CPU Info: {"model":"Intel(R) Core(TM) i5-10210U CPU @ 1.60GHz","speed":2112,"times":{"user":2709843,"nice":0,"sys":5067187,"idle":147071687,"irq":223953}}
[2022-02-28T13:47:48.870] [INFO] zenq - System Username: geetha.k
[2022-02-28T13:47:48.875] [INFO] zenq - Launching the url - https://help.shopdisney.com/hc/en-us
[2022-02-28T13:47:48.895] [INFO] zenq - Waited 25000ms for 'Virtual Assistant'{chatbot} in Home page to be displayed
[2022-02-28T13:47:48.895] [INFO] zenq - Waited 10000ms for 'Shop Disney' Logo in Home page to be displayed
[2022-02-28T13:47:48.895] [INFO] zenq - Waited 10000ms for 'Virtual Assistant'{chatbot} in Home page to be displayed
[2022-02-28T13:47:48.895] [INFO] zenq - Clicked on 'Virtual Assistant'{chatbot} in Home page
[2022-02-28T13:47:48.896] [INFO] zenq - Static wait for 6500ms To load the Virtual Assistant{chatbot}
[2022-02-28T13:47:48.896] [INFO] zenq - Waited 25000ms for 'Virtual Assistant'{chatbot} Header to be displayed
[2022-02-28T13:47:48.896] [INFO] zenq - Waited 10000ms for 'Order Status' option to be displayed
[2022-02-28T13:47:48.896] [INFO] zenq - Waited 10000ms for 'Something else' option to be displayed
[2022-02-28T13:47:48.897] [INFO] zenq - Cleared text value of 'Description' textfield
[2022-02-28T13:47:48.897] [INFO] zenq - Waited 10000ms for 'Track my order' text in 'Description' textfield to be displayed
[2022-02-28T13:47:48.897] [INFO] zenq - Entered text in 'Track my order' text in 'Description' textfield as Track my order
[2022-02-28T13:47:48.899] [INFO] zenq - In chatbot after entering text in 'description' textfield key has been clicked
[2022-02-28T13:47:48.900] [INFO] zenq - Waited 10000ms for ''Glad to help! Do you have your order number and the email address associated with this order?'' text in chatbot to be displayed
[2022-02-28T13:47:48.900] [INFO] zenq - Waited 10000ms for 'Yes' option to be displayed
[2022-02-28T13:47:48.900] [INFO] zenq - Waited 10000ms for 'No' option to be displayed
[2022-02-28T13:47:48.900] [INFO] zenq - Waited 10000ms for 'Yes' option to be displayed
[2022-02-28T13:47:48.900] [INFO] zenq - Clicked on 'Yes' option
[2022-02-28T13:47:48.900] [INFO] zenq - Waited 10000ms for 'Please provide your Order Number' text to be displayed
[2022-02-28T13:47:48.901] [INFO] zenq - Cleared text value of 'Description' textfield
[2022-02-28T13:47:48.901] [INFO] zenq - Waited 10000ms for 'Description' textfield to be displayed
[2022-02-28T13:47:48.901] [INFO] zenq - Entered text in 'Description' textfield as 2234567
[2022-02-28T13:47:48.902] [INFO] zenq - Waited 10000ms for 'Send Message' icon next to 'Description' textfield to be displayed
[2022-02-28T13:47:48.902] [INFO] zenq - Clicked on 'Send Message' icon next to 'Description' textfield
[2022-02-28T13:47:48.902] [INFO] zenq - Waited 10000ms for 'Thanks. And what is the Email Address associated with this order?' text to be displayed
[2022-02-28T13:47:48.902] [INFO] zenq - Cleared text value of 'Description' textfield
[2022-02-28T13:47:48.902] [INFO] zenq - Waited 10000ms for 'Description' textfield to be displayed
[2022-02-28T13:47:48.902] [INFO] zenq - Entered text in 'Description' textfield as testautomation@gmail.com
[2022-02-28T13:47:48.902] [INFO] zenq - Waited 10000ms for 'Send Message' icon next to 'Description' textfield to be displayed
[2022-02-28T13:47:48.903] [INFO] zenq - Clicked on 'Send Message' icon next to 'Description' textfield
[2022-02-28T13:47:48.904] [INFO] zenq - Waited 10000ms for 'I am not able to find an order for the Order Number and Email Address you provided.' text to be displayed
[2022-02-28T13:47:48.904] [INFO] zenq - Waited 10000ms for 'Yes' Option - Check with another email to be displayed
[2022-02-28T13:47:48.904] [INFO] zenq - Waited 10000ms for 'No' option - Check with another email to be displayed
[2022-02-28T13:47:48.905] [INFO] zenq - Waited [object Object]ms for 10000 to be displayed
[2022-02-28T13:47:48.905] [INFO] zenq - Clicked on 10000
[2022-02-28T13:47:48.905] [INFO] zenq - Waited 10000ms for ''No problem. Let me connect you with a cast member for further help.' text to be displayed
[2022-02-28T13:47:48.905] [INFO] zenq - Waited 10000ms for 'Chat with Cast Member' option to be displayed
[2022-02-28T13:47:48.966] [INFO] zenq - 	 **********PASSED**********
