{
  "error": "no such element",
  "message": "no such element: Unable to locate element: {\"method\":\"css selector\",\"selector\":\"div[class=\"avatar\"]>a\"}\n  (Session info: chrome=98.0.4758.102)",
  "stacktrace": "Backtrace:\n\tOrdinal0 [0x00C269A3+2582947]\n\tOrdinal0 [0x00BBA6D1+2139857]\n\tOrdinal0 [0x00AB3A98+1063576]\n\tOrdinal0 [0x00ADFF3E+1244990]\n\tOrdinal0 [0x00AE013B+1245499]\n\tOrdinal0 [0x00B09F52+1417042]\n\tOrdinal0 [0x00AF8594+1344916]\n\tOrdinal0 [0x00B0834A+1409866]\n\tOrdinal0 [0x00AF8366+1344358]\n\tOrdinal0 [0x00AD5176+1200502]\n\tOrdinal0 [0x00AD6066+1204326]\n\tGetHandleVerifier [0x00DCBE02+1675858]\n\tGetHandleVerifier [0x00E8036C+2414524]\n\tGetHandleVerifier [0x00CBBB01+560977]\n\tGetHandleVerifier [0x00CBA8D3+556323]\n\tOrdinal0 [0x00BC020E+2163214]\n\tOrdinal0 [0x00BC5078+2183288]\n\tOrdinal0 [0x00BC51C0+2183616]\n\tOrdinal0 [0x00BCEE1C+2223644]\n\tBaseThreadInitThunk [0x75D1FA29+25]\n\tRtlGetAppContainerNamedObjectPath [0x77A57A9E+286]\n\tRtlGetAppContainerNamedObjectPath [0x77A57A6E+238]\n"
}