launch_status failed=0 1646036287000000000
launch_status broken=0 1646036287000000000
launch_status passed=2 1646036287000000000
launch_status skipped=0 1646036287000000000
launch_status unknown=0 1646036287000000000
launch_time duration=21798 1646036287000000000
launch_time min_duration=166 1646036287000000000
launch_time max_duration=422 1646036287000000000
launch_time sum_duration=588 1646036287000000000
launch_retries retries=0 1646036287000000000
launch_retries run=2 1646036287000000000
